{
    "type": "composableautomation:exploding",
    "ingredient": {
        "item": "minecraft:netherrack"
    },
    "result": {
        "item": "composableautomation:nether_dust",
        "count": 1
    }
}
