{
    "type": "composableautomation:exploding",
    "ingredient": {
        "item": "minecraft:gravel"
    },
    "result": {
        "item": "minecraft:sand",
        "count": 2
    },
    "bonus": "composableautomation:exploding/flint_from_gravel"
}
