{
    "schemaVersion": 1,
    "id": "composableautomation",
    "version": "%VERSION%",
    "name": "Composable Automation",
    "description": "Expand vanilla's capacity for automation without god blocks.",
    "authors": [
        "sargunv"
    ],
    "contact": {
        "homepage": "https://minecraft.curseforge.com/projects/composable-automation",
        "sources": "https://gitlab.com/sargunv-mc-mods/composable-automation",
        "issues": "https://gitlab.com/sargunv-mc-mods/composable-automation/issues"
    },
    "license": "Apache-2.0",
    "icon": "assets/composableautomation/icon.png",
    "environment": "*",
    "entrypoints": {
        "main": [
            {
                "adapter": "kotlin",
                "value": "me.sargunvohra.mcmods.composableautomation.EntrypointKt::init"
            }
        ],
        "client": [
            {
                "adapter": "kotlin",
                "value": "me.sargunvohra.mcmods.composableautomation.EntrypointKt::initClient"
            }
        ],
        "modmenu": [
            "me.sargunvohra.mcmods.composableautomation.ModMenuCompat"
        ]
    },
    "mixins": [
        "composableautomation.mixins.json"
    ],
    "depends": {
        "minecraft": "1.15.x",
        "fabricloader": ">=0.8.0",
        "fabric": ">=0.5.0",
        "fabric-language-kotlin": ">=1.3.61",
        "autoconfig1u": ">=2.0.0"
    }
}
