{
    "type": "composableautomation:soaking",
    "fluidtag": "minecraft:water",
    "ingredient": {
        "item": "minecraft:sponge"
    },
    "result": {
        "item": "minecraft:wet_sponge",
        "count": 1
    }
}
