{
    "parent": "minecraft:recipes/root",
    "rewards": {
        "recipes": [
            "composableautomation:crafting/chute"
        ]
    },
    "criteria": {
        "has_iron_ingot": {
            "trigger": "minecraft:inventory_changed",
            "conditions": {
                "items": [
                    {
                        "item": "minecraft:iron_ingot"
                    }
                ]
            }
        },
        "has_the_recipe": {
            "trigger": "minecraft:recipe_unlocked",
            "conditions": {
                "recipe": "composableautomation:crafting/chute"
            }
        }
    },
    "requirements": [
        [
            "has_iron_ingot",
            "has_the_recipe"
        ]
    ]
}
