{
    "type": "minecraft:crafting_shaped",
    "pattern": [
        " R ",
        "RGR",
        " C "
    ],
    "key": {
        "R": {
            "item": "minecraft:redstone"
        },
        "G": {
            "item": "minecraft:glowstone"
        },
        "C": {
            "item": "minecraft:comparator"
        }
    },
    "result": {
        "item": "composableautomation:dynamic_lamp"
    }
}
