{
    "parent": "composableautomation:block/photosensor_base",
    "textures": {
        "back": "block/observer_back_on",
        "front": "composableautomation:block/green_photosensor_front",
        "particle": "composableautomation:block/green_photosensor_front"
    }
}
