{
    "ambientocclusion": false,
    "textures": {
        "grate": "block/iron_bars"
    },
    "elements": [
        {
            "from": [
                2,
                15,
                2
            ],
            "to": [
                14,
                15,
                14
            ],
            "faces": {
                "up": {
                    "uv": [
                        2,
                        2,
                        14,
                        14
                    ],
                    "texture": "#grate"
                }
            }
        }
    ]
}
